<?xml version="1.0" standalone="no"?>
<!DOCTYPE svg PUBLIC "-//W3C//DTD SVG 1.1//EN" "http://www.w3.org/Graphics/SVG/1.1/DTD/svg11.dtd" >
<svg xmlns="http://www.w3.org/2000/svg">
<metadata>Generated by IcoMoon</metadata>
<defs>
<font id="icomoon" horiz-adv-x="1024">
<font-face units-per-em="1024" ascent="960" descent="-64" />
<missing-glyph horiz-adv-x="1024" />
<glyph unicode="&#x20;" horiz-adv-x="512" d="" />
<glyph unicode="&#xe900;" glyph-name="city" horiz-adv-x="1094" d="M864.189 414.782h229.939v-472.864h-245.191v472.864h15.252zM1063.606 384.261h-184.147v-411.83h184.147v411.83zM848.937 783.53l-275.231-124.926v-686.183h275.231v811.109zM552.192 682.3l327.257 148.539v-888.911h-336.275v736.294l8.999 4.088zM159.767 758.484l206.835 198.853 10.535-10.257 198.733-193.165v-815.289h-420.82v15.27h183.315v15.252h207.002v771.985l-178.875 173.881-180.919-173.927v-148.567h-30.522v161.441zM252.627 577.25h-162.468v-370.792h-59.637v-237.311h292.573v237.311h-70.468v370.792zM74.908 607.772h208.241v-370.792h70.468v-298.354h-353.617v298.354h59.637v370.792h15.27zM659.277 590.966h125.305v-135.137h-140.575v135.137h15.27zM754.061 560.463h-79.532v-74.112h79.532v74.112zM659.277 430.247h125.305v-135.137h-140.575v135.137h15.27zM754.061 399.725h-79.532v-74.112h79.532v74.112zM659.277 273.032h125.305v-135.137h-140.575v135.137h15.27zM754.061 242.529h-79.532v-74.112h79.532v74.112z" />
<glyph unicode="&#xe901;" glyph-name="clock" horiz-adv-x="907" d="M453.671 960c30.325 0 57.78-12.434 77.647-32.55 19.876-20.116 32.172-47.923 32.172-78.618 0-7.021-0.644-13.895-1.89-20.563-10.020 2.569-20.168 4.795-30.462 6.651 0.782 4.52 1.203 9.16 1.203 13.912 0 21.998-8.808 41.917-23.021 56.327-14.23 14.402-33.908 23.313-55.64 23.313-21.715 0-41.393-8.911-55.623-23.313-14.23-14.419-23.038-34.338-23.038-56.327 0-4.752 0.412-9.392 1.203-13.912-10.286-1.856-20.443-4.090-30.462-6.651-1.229 6.668-1.873 13.543-1.873 20.563 0 30.694 12.297 58.502 32.172 78.618 19.859 20.116 47.322 32.55 77.638 32.55zM453.671 857.571c125.682 0 239.454-51.584 321.819-134.963 82.356-83.378 133.287-198.577 133.287-325.814 0-127.246-50.94-242.444-133.287-325.831-82.364-83.378-196.136-134.963-321.819-134.963-125.665 0-239.454 51.584-321.801 134.963-82.356 83.378-133.304 198.577-133.304 325.831 0 127.237 50.948 242.436 133.304 325.814s196.136 134.963 321.801 134.963zM753.465 700.318c-76.71 77.664-182.706 125.708-299.795 125.708-117.072 0-223.067-48.044-299.795-125.708-76.71-77.681-124.178-184.991-124.178-303.524 0-118.55 47.459-225.86 124.178-303.524 76.727-77.681 182.723-125.725 299.795-125.725 117.089 0 223.084 48.044 299.795 125.725 76.727 77.664 124.178 184.983 124.178 303.524 0 118.533-47.451 225.851-124.178 303.524zM453.671 724.189c89.299 0 170.142-36.641 228.661-95.89 58.527-59.249 94.73-141.115 94.73-231.505 0-90.408-36.194-172.265-94.73-231.523-58.51-59.249-139.362-95.89-228.661-95.89-89.282 0-170.134 36.641-228.661 95.89-58.51 59.249-94.713 141.115-94.713 231.523 0 90.39 36.194 172.256 94.713 231.505 58.527 59.249 139.379 95.89 228.661 95.89zM660.325 606.009c-52.89 53.535-125.94 86.652-206.654 86.652-80.689 0-153.764-33.126-206.637-86.652-52.89-53.535-85.595-127.53-85.595-209.215 0-81.711 32.705-155.68 85.595-209.232 52.873-53.535 125.94-86.652 206.637-86.652 80.706 0 153.764 33.126 206.654 86.652 52.873 53.552 85.595 127.53 85.595 209.232 0 81.694-32.722 155.68-85.595 209.215zM469.242 708.421v-70.128h-31.141v70.128zM469.242 154.487v-70.137h-31.141v70.137zM145.49 412.167h69.269v-31.545h-69.269zM692.601 412.167h69.269v-31.545h-69.269zM313.020 674.436l34.63-60.736-26.879-15.631-34.63 60.736zM586.58 194.788l34.639-60.744-26.879-15.768-34.647 60.744zM621.218 658.805l-34.639-60.736-26.888 15.631 34.647 60.736zM347.65 179.020l-34.63-60.744-26.879 15.768 34.63 60.744zM712.794 226.772l-59.988 35.060 15.571 27.223 59.988-35.060zM239.042 503.743l-60.005 35.068 15.45 27.206 60.005-35.060zM178.977 253.995l60.005 35.060 15.571-27.223-59.988-35.060zM652.866 530.957l59.988 35.060 15.45-27.206-59.988-35.068zM484.202 514.424l0.017-153.67c0-8.67-6.943-15.691-15.51-15.691h-0.12l-130.305 1.349 0.249 31.399 114.674-1.203-0.017 137.807h31.021z" />
<glyph unicode="&#xe902;" glyph-name="form" horiz-adv-x="814" d="M21.52 792h187.307c-1.34-4.626-2.062-9.507-2.062-14.541v0c0-5.546 0.862-10.894 2.47-15.939h-180.933v-795.028h756.952v795.028h-206.124c1.596 5.045 2.458 10.393 2.458 15.939v0c0 5.033-0.711 9.915-2.039 14.541h212.52c6.618 0 12.7-2.668 17.116-6.991l0.070-0.047c4.404-4.334 7.119-10.276 7.119-16.778v-808.346c0-6.49-2.726-12.432-7.119-16.766l-0.070-0.047c-4.416-4.311-10.486-6.991-17.116-6.991h-770.549c-6.641 0-12.712 2.668-17.127 6.991l-0.047 0.047c-4.416 4.334-7.142 10.276-7.142 16.766v808.346c0 6.501 2.726 12.444 7.142 16.778l0.047 0.047c4.416 4.311 10.486 6.991 17.127 6.991zM134.014 584.559h561.943v-30.457h-561.943zM134.014 468.489h561.943v-30.48h-561.943zM134.014 351.311h561.943v-30.457h-561.943zM134.014 236.313h271.080v-30.48h-271.080zM134.014 122.363h271.080v-30.457h-271.080zM482.377 180.794l61.437-65.632 133.478 131.683 21.998-21.427-145.443-143.439c-6.292-5.639-16.102-5.231-21.881 0.944l-72.425 77.4 22.837 20.471zM392.743 960c29.827 0 56.847-11.849 76.386-30.993 19.551-19.143 31.657-45.603 31.657-74.813 0-7.806-0.862-15.403-2.505-22.72h-32.169c2.307 7.166 3.554 14.809 3.554 22.72 0 20.798-8.61 39.638-22.522 53.27s-33.148 22.056-54.4 22.056c-21.252 0-40.488-8.436-54.4-22.056-13.912-13.632-22.522-32.472-22.522-53.27 0-7.923 1.247-15.555 3.565-22.72h-32.181c-1.631 7.317-2.493 14.925-2.493 22.72 0 29.21 12.106 55.67 31.633 74.813 19.551 19.143 46.559 30.993 76.386 30.993zM261.922 846.714h264.52c19.399 0 37.086-7.783 49.879-20.332l0.070-0.047c12.793-12.548 20.763-29.851 20.763-48.866v0c0-19.027-7.97-36.317-20.763-48.854l-0.035-0.035 0.035-0.035c-12.793-12.537-30.492-20.32-49.949-20.32h-264.52c-19.458 0-37.144 7.783-49.949 20.32-12.816 12.548-20.763 29.862-20.763 48.912v0c0 19.050 7.946 36.387 20.763 48.912 0.303 0.303 0.618 0.583 0.932 0.851 12.735 12.047 30.025 19.493 49.017 19.493zM526.442 816.258h-264.52c-10.556 0-20.203-4.101-27.322-10.743l-0.629-0.664c-7.189-7.037-11.64-16.731-11.64-27.392v0c0-10.638 4.451-20.332 11.64-27.369 7.166-7.037 17.081-11.407 27.952-11.407h264.52c10.871 0 20.763 4.369 27.952 11.407l0.035-0.035c7.154 7.037 11.605 16.731 11.605 27.404v0c0 10.673-4.451 20.378-11.605 27.427-7.189 7.002-17.092 11.372-27.986 11.372z" />
<glyph unicode="&#xe903;" glyph-name="passport" horiz-adv-x="775" d="M15.234 960.014h760.823v-1024.014h-776.827v1024.014h16.004zM744.062 928.006h-712.838v-960.025h712.838v960.025zM179.238 540.51c-0.193 1.036-0.359 2.057-0.663 3.135l0.967 0.428c0 0-0.276 0.318-0.4 0.318-0.552-0.608-1.105-0.773-1.781-0.884-0.318-1.519-0.387-3.342 1.312-3.659 0.193 0.221 0.387 0.456 0.552 0.677zM385.676 316.342c-5.537 2.831-10.854 8.147-13.008 13.367-2.941-1.795-6.849-3.425-10.895-3.507-8.713-0.207-17.344 5.993-19.691 13.353-6.283-6.49-14.25-5.344-19.291-2.955-7.664 3.576-10.646 11.723-10.218 17.357-1.45-1.312-1.809-4.474-2.458-7.015-1.022-3.922-3.77-6.587-7.747-7.733 2.831 9.058-4.571 9.114-6.311 16.17-2.209 8.865 2.196 15.134 8.078 18.269-4.267 2.665-6.311 7.829-3.853 14.748 1.795 5.123 8.175 8.644 12.98 7.733-4.64-4.46-1.919-10.398 3.176-10.177 6.297 0.262 12.552 8.285 20.837 13.008 9.183 5.22 16.266 5.91 25.366 12.621-6.241 0.552-11.061-1.505-14.582-5.951-1.008 9.611 7.139 13.146 12.662 16.874 10.923 7.429-1.022 25.228-9.486 27.41-11.82 3.038-19.691-4.294-18.614-13.146 1.215-10.066 11.019-7.388 15.107-5.482 0.041-5.468-4.847-9.252-7.042-10.177-1.933-0.829-5.192-1.381-8.561-0.732 0.483-1.118 1.008-2.32 1.298-3.093 1.036-2.734 4.391-5.33 4.874-8.313 0.249-1.422-0.539-2.596-1.629-3.411-4.143-3.079-10.605-1.602-15.659-1.188-3.217 0.276-8.63 0.11-11.599-0.138-12.193-1.022-22.384-6.697-31.842-13.422-1.643-1.16-6.518-4.17-10.080-6.352l0.18-0.594c-6.628-0.967-13.657-3.48-19.194-5.813l-0.221 0.193c-2.61 0.318-6.863 1.671-6.656 6.090-5.137 0.207-8.492 2.927-7.319 8.782-2.651 0.842-3.991 2.016-4.433 5.151-0.635 4.571 3.866 8.824 5.882 11.392-0.083 0.539-0.262 1.353-0.469 2.251l13.146 7.18c1.105 1.85 4.032 1.284 5.261 0.539 3.797 3.784 9.003 1.864 10.923-4.391 1.906-6.255 9.997-8.962 14.471-8.244 5.855 0.953 15.59 4.598 20.989 7.346v0c3.231 1.643 5.399 2.762 7.401 4.032 0.608 2.541 0.207 5.579-0.138 6.932-1.118-1.533-2.679-2.831-5.137-3.991-0.193 1.298-0.331 2.458-0.842 3.645-2.403-3.369-6.131-5.33-10.646-5.013 2.748 2.375 4.060 8.52 2.679 13.795-3.839-6.297-18.269-7.802-20.92 3.645 5.427-2.209 8.907 0.387 9.928 3.383 1.505 4.377-3.853 15.7 1.049 24.234 3.77 6.573 8.092 10.439 18.269 11.944-0.829 1.298-1.077 2.347-1.395 4.225 9.307-3.521 17.495-1.022 21.072 6.67-1.85-0.911-4.64-1.284-7.084-1.229 8.161 6.863 7.747 25.739 1.809 35.667-0.732 0.4-1.174 0.911-1.837 1.243-1.906-3.839-7.222-3.825-9.956-6.67-1.036 1.049-1.629 1.298-2.789 2.099 0 0-0.193-15.479-1.215-21.721-1.174-7.319-8.009-6.435-11.654-9.652-4.198 4.336-11.737 4.308-10.646 12.096 1.16 8.23 2.748 15.438 3.065 20.63-2.458-4.709-6.918-22.881-8.893-28.252-2.858-7.747-10.301-5.496-14.527-8.23-2.858 5.399-9.68 6.849-6.946 14.761 0.746 2.168 12.069 26.347 13.643 30.738-3.977-5.758-14.734-26.844-18.365-32.699-3.784-6.103-10.633-3.314-15.631-4.93-0.953 4.667-7.705 9.597-2.886 17.33 6.366 10.232 20.575 28.114 21.583 30.475-3.093-2.541-25.366-30.379-27.203-31.981-4.778-4.253-11.751-1.574-16.211-1.118l2.127-4.405-7.94 1.243-4.143 10.011c-3.204 0.967-4.060 2.61-3.494 5.068-2.693 0.704-4.681 3.162-4.681 6.090 0 0.207 0 0.4 0.014 0.594-1.85-0.801-4.446-0.967-5.882 1.809l-7.208 4.612c0.704 0.815-1.809 0.428-4.336 3.079-4.681 4.888-4.239 13.146-3.935 14.278l6.711-2.9c0.124 0.884 0.566 1.643 1.077 2.237-0.677 1.008-0.898 1.988-0.829 2.886-0.262 0.193-0.497 0.387-0.759 0.594 0.663 1.712 1.56 3.355 2.651 4.861 0.11 1.022 0.746 1.947 1.947 2.789-0.069 0.069-0.124 0.152-0.18 0.262-0.221 0.525 0 1.118 0.525 1.367 0.469 0.207 0.98 0.041 1.284-0.345 2.665 2.458 5.689 4.308 8.437 5.233-11.461-0.262-19.001 4.985-23.985 11.53 4.143 5.551 12.566 9.735 21.942 10.757-14.14 2.044-25.38 10.95-26.692 21.003 5.841 3.645 15.176 4.529 24.303 3.922-14.554 4.874-24.676 15.976-25.366 25.767 7.94 2.265 15.921 1.16 22.895-0.469-7.388 5.399-19.056 15.176-17.689 29.509 6.946 1.643 19.622-3.135 25.187-5.427-17.288 9.666-23.433 32.16-14.319 45.071 5.289-3.079 29.702-28.1 33.61-30.862-12.428 14.416-18.365 24.648-21.873 34.439-3.825 10.619-4.225 28.998 8.796 35.308 6.117-14.209 27.852-50.539 40.045-65.522 1.105 1.077 2.209 2.555 3.77 2.955 2.969-9.307 11.668-21.528 19.346-27.244 0.387 0.801 0.98 2.969 2.541 4.985 8.188-12.372 29.564-29.164 36.496-39.423 5.233-7.76 5.441-14.899-2.057-22.094-2.996-2.858-8.851-8.313-3.825-15.659 8.078-11.779 26.001-11.323 31.221-1.188-11.392 1.284-14.886 15.369-7.733 23.544 3.024-5.51 9.528-7.981 16.17-5.275 4.17 1.712 7.36 3.977 9.127 5.965-9.183-3.135-17.233 2.458-16.17 11.944 7.429-6.449 15.065-0.249 16.515 1.422 4.874 5.468 6.131 11.668 4.239 21.072-1.671 8.216-10.025 21.251-15.769 25.629-0.635-0.939-1.947-2.582-4.612-2.071-1.767 0.331-4.529 1.878-6.324 2.458-5.579 1.767-11.199 0.29-14.596-1.795-6.449-3.963-5.882-8.175-5.786-11.544-9.818 5.675-6.283 14.692 6.421 18.255-8.796-0.11-15.907-7.898-17.647-9.127-4.819-3.314-11.779-2.596-15.825-0.69-7.733 3.632-9.514 12.662-7.388 14.748 0.801-3.245 3.411-6.159 7.733-6.67 6.766-0.815 13.173 2.057 18.269 4.225 4.17 1.781 11.185 3.079 16.004 2.762-8.699 4.957-22.439 4.405-27.272-3.107-2.831 2.389-4.75 4.543-5.606 9.486-2.278 12.911 7.636 19.677 18.614 19.677-0.124 3.093 2.071 4.667 4.916 3.853 0 0.552 0.069 1.077 0.221 1.519l0.345 0.69c0.152 0.207 0.345 0.4 0.552 0.552l-0.262 0.014 0.98 1.919h0.041c0.331-0.069 0.704-0.152 1.118-0.221v2.513l-0.166 0.304c-1.864 3.342-3.48 7.18-4.736 10.605-4.253 11.447 2.127 16.308 11.806 18.393 1.118 0.759 2.458 0.98 4.115 0.483l0.221-0.069 0.221-1.698 1.298 0.193-0.124 2.306 0.29-0.041c-0.911 0.911-1.491 2.182-1.491 3.576 0 1.215 0.428 2.32 1.146 3.176h-1.505l0.552 0.608c0.387 0.428 0.98 1.105 1.533 1.795 0.29 0.387 0.552 0.732 0.746 1.049-0.331-0.193-0.677-0.456-1.049-0.746-0.69-0.539-1.367-1.16-1.795-1.533l-0.608-0.552v10.743l0.608-0.552c0.428-0.387 1.105-1.008 1.795-1.533 0.387-0.29 0.732-0.552 1.049-0.759-0.193 0.331-0.456 0.69-0.746 1.049-0.539 0.704-1.16 1.381-1.533 1.795l-0.539 0.621h10.702l-0.539-0.621c-0.387-0.414-1.008-1.091-1.56-1.795-0.276-0.359-0.539-0.732-0.746-1.049 0.331 0.207 0.69 0.456 1.077 0.746 0.69 0.552 1.367 1.174 1.781 1.533l0.621 0.552v-10.715l-0.621 0.552c-0.414 0.387-1.091 0.98-1.781 1.533-0.387 0.29-0.746 0.552-1.077 0.746 0.193-0.331 0.456-0.677 0.746-1.049 0.552-0.69 1.16-1.367 1.533-1.795l0.552-0.608h-1.491c0.704-0.87 1.146-1.975 1.146-3.176 0-1.395-0.566-2.665-1.491-3.563l0.221 0.014-0.124-2.306 1.284-0.193 0.249 1.698 0.221 0.069c1.657 0.497 2.996 0.276 4.101-0.483 9.694-2.099 16.059-6.946 11.82-18.393-1.312-3.549-2.969-7.526-4.93-10.923l-0.014-1.588c9.597 3.065 27.148 13.657 31.732 20.119 0.525 0.677 0.911 1.16 1.229 1.505l-0.083 7.084c-3.576 5.537-6.6 12.635-8.907 18.849-6.131 16.584 2.955 23.585 17.288 26.623 1.519 1.091 3.342 1.45 5.703 0.704l0.387-2.693 2.955 0.414-0.18 3.286c0.621-0.069 1.229-0.138 1.781-0.193-2.127 1.174-3.59 3.452-3.59 6.062 0 2.113 0.967 4.004 2.472 5.275h-2.32c1.118 1.284 3.687 4.032 4.060 5.675-1.657-0.359-4.405-2.927-5.675-4.046v13.491c1.257-1.146 4.032-3.701 5.675-4.060-0.359 1.643-2.927 4.405-4.046 5.675h13.463c-1.146-1.284-3.687-4.004-4.060-5.675 1.657 0.359 4.405 2.9 5.675 4.046v-13.491c-1.257 1.146-4.004 3.701-5.675 4.060 0.359-1.657 2.927-4.391 4.046-5.675h-2.306c1.505-1.257 2.472-3.162 2.472-5.275 0-2.61-1.45-4.874-3.576-6.048 0.525 0.055 1.091 0.11 1.657 0.18l-0.18-3.286 2.955-0.414 0.387 2.693c2.375 0.746 4.184 0.387 5.717-0.704 14.319-3.038 23.405-10.039 17.274-26.623-2.306-6.2-5.33-13.311-8.907-18.849l-0.069-6.973c0.331-0.345 0.759-0.87 1.353-1.629 4.571-6.462 22.107-17.067 31.704-20.119l-0.014 1.588c-1.933 3.411-3.618 7.388-4.916 10.923-4.253 11.447 2.127 16.308 11.806 18.393 1.118 0.759 2.444 0.98 4.101 0.483l0.249-0.069 0.221-1.698 1.298 0.193-0.138 2.306 0.221-0.014c-0.911 0.898-1.464 2.168-1.464 3.563 0 1.215 0.414 2.32 1.118 3.176h-1.491l0.552 0.608c0.387 0.428 0.98 1.105 1.533 1.795 0.29 0.387 0.552 0.732 0.746 1.049-0.331-0.193-0.69-0.456-1.049-0.746-0.704-0.552-1.367-1.16-1.795-1.533l-0.621-0.552v10.715l0.621-0.552c0.428-0.359 1.091-0.98 1.795-1.533 0.359-0.29 0.732-0.539 1.049-0.746-0.193 0.331-0.456 0.69-0.746 1.049-0.552 0.704-1.16 1.381-1.533 1.795l-0.552 0.621h10.715l-0.552-0.621c-0.387-0.414-0.98-1.091-1.533-1.795-0.29-0.359-0.552-0.732-0.746-1.049 0.331 0.207 0.69 0.469 1.049 0.759 0.704 0.539 1.381 1.16 1.795 1.533l0.621 0.552v-10.743l-0.621 0.552c-0.414 0.387-1.091 1.008-1.795 1.533-0.359 0.29-0.732 0.552-1.049 0.746 0.193-0.331 0.456-0.677 0.746-1.049 0.552-0.69 1.16-1.367 1.533-1.795l0.552-0.608h-1.491c0.704-0.87 1.146-1.975 1.146-3.176 0-1.395-0.594-2.665-1.505-3.576l0.318 0.041-0.138-2.306 1.298-0.193 0.249 1.698 0.207 0.069c1.671 0.497 3.010 0.276 4.115-0.483 9.68-2.099 16.059-6.946 11.82-18.393-1.312-3.521-2.996-7.498-4.93-10.909l0.014-2.513c0.414 0.069 0.773 0.152 1.118 0.221l0.276 0.069 1.008-1.975-0.525-0.041c0.746-0.539 1.146-1.56 1.105-2.762 2.831 0.815 5.026-0.759 4.93-3.853 10.964 0 20.892-6.766 18.614-19.677-0.87-4.943-2.789-7.111-5.62-9.486-4.819 7.526-18.545 8.078-27.272 3.107 4.819 0.318 11.848-0.98 16.004-2.762 5.095-2.168 11.53-5.026 18.269-4.225 4.322 0.525 6.932 3.425 7.733 6.67 2.14-2.099 0.359-11.116-7.36-14.748-4.046-1.906-11.019-2.624-15.825 0.69-1.767 1.229-8.851 9.031-17.675 9.127 12.69-3.563 16.253-12.593 6.421-18.255 0.083 3.369 0.663 7.595-5.786 11.544-3.383 2.099-9.003 3.563-14.596 1.795-1.795-0.566-4.571-2.127-6.311-2.458-2.679-0.497-3.991 1.146-4.612 2.071-5.744-4.377-14.112-17.413-15.769-25.629-1.919-9.404-0.635-15.617 4.225-21.072 1.45-1.657 9.1-7.871 16.515-1.422 1.091-9.486-6.987-15.079-16.17-11.944 1.767-1.988 4.957-4.253 9.141-5.965 6.628-2.72 13.146-0.249 16.142 5.275 7.153-8.175 3.659-22.273-7.733-23.544 5.22-10.135 23.157-10.577 31.221 1.188 5.026 7.346-0.815 12.814-3.797 15.659-7.526 7.194-7.319 14.333-2.071 22.094 6.932 10.246 28.321 27.037 36.51 39.423 1.533-2.002 2.14-4.184 2.541-4.985 7.664 5.717 16.349 17.951 19.332 27.244 1.56-0.4 2.665-1.878 3.77-2.955 12.207 14.996 33.928 51.313 40.045 65.522 13.021-6.311 12.621-24.69 8.824-35.308-3.521-9.79-9.459-20.022-21.873-34.439 3.908 2.762 28.308 27.783 33.596 30.862 9.127-12.911 2.969-35.405-14.319-45.071 5.565 2.306 18.241 7.070 25.187 5.427 1.367-14.333-10.287-24.124-17.689-29.509 6.973 1.629 14.955 2.734 22.895 0.469-0.69-9.79-10.784-20.892-25.352-25.767 9.114 0.608 18.462-0.276 24.289-3.922-1.312-10.066-12.552-18.973-26.692-21.003 9.39-1.022 17.813-5.206 21.956-10.757-4.985-6.559-12.538-11.792-23.985-11.53 5.468-1.85 12.055-7.332 14.651-14.154-6.587-5.233-14.789-8.575-33.679-1.85 21.61-9.058 17.426-13.436 20.727-22.701-3.922-1.533-7.47-5.579-17.578-3.065-5.896 1.464-15.562 10.619-23.847 16.059 2.734-2.831 14.927-11.682 20.243-16.819 5.979-5.744 1.74-11.544 1.781-16.736-4.377-0.083-12.055-3.507-17.164 1.049-1.809 1.602-24.096 29.44-27.175 31.981 1.008-2.375 15.203-20.243 21.583-30.475 4.805-7.733-1.933-12.662-2.886-17.33-5.013 1.602-11.862-1.174-15.645 4.93-3.632 5.841-14.389 26.94-18.365 32.699 1.574-4.391 12.897-28.584 13.657-30.738 2.72-7.912-4.115-9.376-6.946-14.761-4.239 2.734-11.668 0.483-14.527 8.23-1.975 5.372-6.449 23.544-8.907 28.252 0.318-5.192 1.919-12.4 3.065-20.63 1.091-7.802-6.435-7.76-10.646-12.096-3.645 3.217-10.467 2.334-11.654 9.652-1.008 6.241-1.215 21.721-1.215 21.721-1.16-0.801-1.726-1.036-2.789-2.099-2.734 2.858-8.050 2.831-9.956 6.67-0.663-0.331-1.105-0.842-1.837-1.243-5.924-9.928-6.352-28.805 1.837-35.667-2.458-0.055-5.233 0.318-7.111 1.229 3.576-7.691 11.779-10.205 21.072-6.67-0.318-1.864-0.566-2.927-1.381-4.225 10.163-1.505 14.499-5.372 18.255-11.944 4.916-8.547-0.428-19.87 1.049-24.234 1.036-3.010 4.515-5.606 9.942-3.383-2.651-11.447-17.095-9.942-20.92-3.645-1.395-5.275-0.083-11.433 2.665-13.795-4.502-0.318-8.244 1.643-10.646 5.013-0.497-1.188-0.635-2.347-0.842-3.645-2.444 1.16-3.991 2.458-5.137 3.991-0.124-0.469-0.249-1.16-0.345-1.947 0.525-2.61 1.284-4.584 1.919-5.482 2.858-4.060 8.313-5.979 12.731-7.636 9.307-3.507 19.774-7.47 29.039-6.228 1.174 0.152 6.393 2.734 7.263 6.808-0.704 1.353-1.326 2.762-1.837 4.239-0.663 0.083-1.284 0.387-1.767 0.842l14.264 7.954h12.082l7.526-3.922c0 0 4.253-9.473 4.253-11.779 0-2.278-3.245-18.462-3.245-18.462-0.801-0.87-1.629-1.657-2.858-1.988-3.286-0.884-7.153 0.497-10.398-0.428-4.543-1.312-6.021-4.64-9.859-4.515-3.866 0.124-2.927 2.734-9.376 3.632-4.074 2.251-8.989 5.841-13.298 7.595-6.725 2.734-14.678 2.762-22.011 4.267-6.697 1.381-12.69 3.922-19.498 4.93-4.267 0.663-18.738 0.152-20.961 2.831-1.629 3.452 2.789 4.322 3.756 12.842 0.041 0.345 0.11 1.174 0.18 2.196-4.143-1.574-8.561-0.967-10.964 0.055-2.196 0.939-7.070 4.723-7.015 10.177 4.074-1.906 13.878-4.584 15.107 5.482 1.077 8.851-6.794 16.184-18.614 13.146-8.492-2.182-20.437-19.967-9.486-27.41 5.496-3.728 13.643-7.263 12.662-16.874-3.521 4.446-8.34 6.504-14.596 5.951 9.1-6.711 16.197-7.401 25.38-12.621 8.285-4.723 14.527-12.745 20.837-13.008 5.082-0.207 7.816 5.717 3.162 10.177 4.819 0.911 11.199-2.61 13.008-7.733 2.444-6.918 0.414-12.082-3.866-14.748 5.882-3.148 10.287-9.404 8.092-18.269-1.74-7.056-9.169-7.111-6.324-16.17-3.963 1.146-6.711 3.797-7.733 7.733-0.663 2.541-1.008 5.703-2.458 7.015 0.414-5.634-2.582-13.781-10.218-17.357-5.068-2.389-13.035-3.521-19.318 2.955-2.334-7.346-10.964-13.56-19.677-13.353-4.060 0.083-7.954 1.712-10.895 3.507-2.14-5.22-7.484-10.536-13.008-13.367zM204.466 508.82c-0.801 4.571-3.093 9.486 1.988 14.389 5.344 5.137 17.509 13.988 20.243 16.819-8.285-5.441-17.951-14.596-23.847-16.059-1.022-0.262-1.975-0.456-2.872-0.594-0.069-0.359-0.152-0.732-0.276-1.077 0.055-0.262 0.083-0.497 0.152-0.746 2.099-0.829 3.024-3.77 1.367-6.048l3.231-6.697zM192.163 546.241c-0.456-0.055-0.898-0.11-1.326-0.138l0.249-0.318c0.29-0.041 0.594-0.055 0.884-0.055 0.083 0.18 0.18 0.331 0.207 0.497zM181.682 531.134v0l2.679-1.574c0.4 0.539 0.552 1.243 0.469 2.127-1.077 0.456-2.265 0.469-3.148-0.552zM201.732 548.326c0-0.152 0-0.318 0-0.469 1.298 0.608 2.72 1.229 4.267 1.878-1.491-0.539-2.927-1.008-4.267-1.422zM394.582 729.245c-2.789-0.18-5.827-0.262-9.003-0.262-3.107 0-6.090 0.083-8.824 0.249-6.725-6.725-21.693-15.176-36.427-18.227h0.014c8.52 0 23.516 0.69 25.297 2.817-0.318-5.372-11.848-11.572-19.401-13.146 6.186-0.621 11.986 0.041 16.777 2.32-2.61-3.784-5.634-6.863-10.633-8.478 5.275-6.449 15.921-10.564 26.609-9.528-2.541-3.273-7.277-5.192-11.668-4.64 8.658-13.629 16.556-28.667 18.365-49.324 1.795 20.658 9.68 35.709 18.338 49.324-4.377-0.552-9.127 1.367-11.668 4.64 10.688-1.036 21.334 3.079 26.623 9.528-5.013 1.602-8.023 4.681-10.646 8.478 4.805-2.278 10.577-2.941 16.777-2.32-7.539 1.574-19.083 7.76-19.401 13.146 1.781-2.127 16.777-2.817 25.297-2.817h0.014c-14.734 3.038-29.716 11.516-36.427 18.241zM176.269 216.258h21.666v-103.965h19.401v121.28h-60.109v-121.28h19.056v103.965zM273.467 233.588h-27.893l-19.415-121.28h17.509l3.286 21.997h23.392l3.286-21.997h19.249l-19.415 121.28zM258.568 212.102l9.196-61.338h-18.379l9.183 61.338zM338.975 157.517v-17.33c0-8.658-3.825-11.779-9.873-11.779-6.062 0-9.887 3.107-9.887 11.779v65.494c0 8.686 3.825 11.958 9.887 11.958 6.048 0 9.873-3.286 9.873-11.958v-12.98h18.020v11.779c0 19.415-9.694 30.503-28.418 30.503-18.711 0-28.404-11.088-28.404-30.503v-63.077c0-19.401 9.694-30.503 28.404-30.503 18.724 0 28.418 11.102 28.418 30.503v16.115h-18.020zM387.664 216.272h21.666v-103.965h19.401v121.28h-60.109v-121.28h19.056v103.965zM460.090 205.695c0 8.686 3.825 11.958 9.873 11.958 6.062 0 9.887-3.286 9.887-11.958v-65.494c0-8.658-3.825-11.944-9.887-11.944-6.048 0-9.873 3.286-9.873 11.944v65.494zM441.034 141.416c0-19.401 10.218-30.503 28.929-30.503 18.724 0 28.943 11.102 28.943 30.503v63.077c0 19.415-10.218 30.503-28.943 30.503-18.711 0-28.929-11.088-28.929-30.503v-63.077zM539.268 233.602h-28.059v-121.28h19.056v45.554h9.003c19.070 0 28.418 10.577 28.418 29.978v15.769c0 19.415-9.348 29.978-28.418 29.978zM539.268 216.272c6.062 0 9.376-2.789 9.376-11.447v-18.186c0-8.658-3.3-11.433-9.376-11.433h-9.003v41.067h9.003zM570.972 216.272h19.94v-103.965h19.056v103.965h19.94v17.33h-58.921v-17.33z" />
<glyph unicode="&#xe904;" glyph-name="wallet" horiz-adv-x="949" d="M634.397 458.22h279.037c10.019 0 19.133-4.18 25.761-10.911l0.044-0.058c6.628-6.731 10.728-16.019 10.728-26.207v-239.763c0-10.18-4.107-19.461-10.728-26.221l-0.029-0.015-0.015-0.029c-6.643-6.745-15.771-10.911-25.761-10.911h-279.037c-10.005 0-19.133 4.166-25.761 10.911l-0.029 0.029-0.029 0.015c-6.628 6.76-10.728 16.034-10.728 26.221v239.763c0 10.18 4.107 19.476 10.728 26.207v0.058c6.614 6.731 15.756 10.911 25.819 10.911zM913.434 429.288h-279.037c-2.222 0-4.253-0.935-5.722-2.434l-0.029 0.029c-1.454-1.498-2.353-3.574-2.353-5.839v-239.763c0-2.295 0.892-4.356 2.339-5.825l0.044-0.044c1.44-1.469 3.471-2.39 5.722-2.39h279.037c2.236 0 4.268 0.921 5.708 2.39l0.058 0.044c1.44 1.469 2.324 3.53 2.324 5.825v239.763c0 2.251-0.892 4.312-2.324 5.81l-0.058 0.058c-1.469 1.469-3.486 2.368-5.708 2.368zM748.783 372.701c20.024 0 38.148-8.273 51.266-21.61 13.133-13.352 21.252-31.805 21.252-52.172s-8.119-38.813-21.252-52.172c-13.118-13.352-31.242-21.61-51.266-21.61s-38.148 8.258-51.281 21.61c-13.118 13.352-21.237 31.805-21.237 52.172s8.119 38.813 21.237 52.172c13.133 13.337 31.257 21.61 51.281 21.61zM778.571 329.233c-7.615 7.754-18.153 12.555-29.788 12.555s-22.173-4.801-29.788-12.555c-7.615-7.754-12.329-18.468-12.329-30.307s4.714-22.56 12.329-30.307c7.615-7.754 18.153-12.555 29.788-12.555s22.173 4.801 29.788 12.555c7.615 7.754 12.329 18.468 12.329 30.307s-4.714 22.56-12.329 30.307zM60.984 682.22h765.645c16.955 0 32.426-7.082 43.651-18.482l0.029-0.029 0.015-0.029 0.044-0.044c11.189-11.415 18.124-27.12 18.124-44.36v-175.291h-27.208v175.291c0 9.705-3.881 18.526-10.136 24.884l-0.058 0.058c-6.241 6.358-14.908 10.319-24.453 10.319h-765.645c-9.544 0-18.212-3.954-24.497-10.348-6.27-6.387-10.151-15.223-10.151-24.913v-620.339c0-9.705 3.881-18.526 10.151-24.913 6.285-6.387 14.952-10.348 24.497-10.348h765.645c9.515 0 18.168 3.976 24.453 10.377l0.029-0.029c6.27 6.387 10.166 15.208 10.166 24.913v162.985h27.208v-162.985c0-17.284-6.965-33.003-18.168-44.404l-0.015-0.029 0.015-0.029c-11.203-11.401-26.674-18.482-43.695-18.482h-765.645c-16.999 0-32.455 7.082-43.666 18.482l-0.044 0.044c-11.203 11.415-18.168 27.12-18.168 44.418v620.339c0 17.284 6.965 33.003 18.168 44.418l0.044 0.044c11.203 11.401 26.66 18.482 43.666 18.482zM373.294 321.406c-0.921-1.717-5.781-4.962-8.258-6.183-11.057-5.437-25.834-4.18-38.236-4.18-1.484 0-54.686-0.19-56.309 0.088l0.015 91c1.688 0.3 60.781 0.073 62.309 0.073 9.325 0 21.047 0.417 29.773-1.44 3.026-0.65 3.245-1.067 5.452-2.477 2.784-1.761 6.577-4.538 8.733-6.892 0.862-0.965 2.843-3.099 3.303-4.538 0.877-0.577 3.040-5.678 3.603-7.177 5.335-14.287 5.203-31.951-1.557-45.661-1.381-2.799-5.883-10.392-8.521-12.453-0.27-0.219-0.058-0.073-0.314-0.175zM270.418 173.951l0.015 66.343 100.164 0.088-0.015 26.441-100.055 0.015-0.015 17.62c1.988 0.219 59.356 0.044 61.227 0.044 18.365 0 36.014-0.044 52.45 9.055 7.425 4.107 12.27 8.463 16.779 14.097 4.326 5.379 8.865 11.503 12.197 18.767 7.454 16.231 7.308 35.035 2.222 52.852-2.404 8.119-4.626 15.055-8.792 21.31-3.471 5.203-9.647 11.963-14.477 15.515-5.466 4.034-12.299 7.768-19.936 9.976-11.218 3.259-15.975 2.295-26.353 3.259l-103.212 0.044-0.073-118.303-26.083-0.029-0.044-26.499 26.068-0.044 0.058-17.649-26.053-0.015-0.073-26.514 26.053-0.029 0.073-66.321 27.88-0.015zM317.716 507.301c55.892 0 106.508-23.064 143.143-60.335 36.592-37.213 59.225-88.618 59.225-145.321 0-56.689-22.633-108.072-59.225-145.292-36.635-37.293-87.266-60.35-143.143-60.35-55.892 0-106.522 23.064-143.158 60.35-36.592 37.213-59.225 88.603-59.225 145.292 0 56.703 22.633 108.108 59.225 145.321 36.635 37.278 87.266 60.335 143.158 60.335zM441.369 427.79c-31.644 32.177-75.354 52.099-123.653 52.099s-92.023-19.907-123.667-52.099c-31.673-32.236-51.281-76.83-51.281-126.145 0-49.278 19.608-93.894 51.295-126.115 31.629-32.192 75.354-52.099 123.653-52.099 48.284 0 92.009 19.907 123.653 52.099 31.688 32.236 51.281 76.83 51.281 126.115 0 49.308-19.608 93.909-51.281 126.145zM273.115 755.484l435.327 0.446-18.541 73.614c-2.032 8.075-7.125 14.602-13.725 18.599-6.548 3.976-14.616 5.437-22.618 3.42l-380.444-96.087zM725.901 728.378l-619.885-0.636 152.417 45.237 388.636 105.419c15.179 3.822 30.519 1.038 43.037-6.563 12.482-7.586 22.158-20.010 26.053-35.481l27.179-107.962-17.444-0.015zM217.479 819.853l253.459 71.129-18.855 28.085c-4.385 6.519-10.772 10.801-17.729 12.511-7.008 1.703-14.645 0.833-21.478-2.967l-195.403-108.759zM496.486 869.519l-440.523-123.623 120.108 75.215 223.846 131.728c12.891 7.177 27.376 8.806 40.713 5.561 13.366-3.274 25.578-11.415 33.88-23.773l40.297-59.963-18.321-5.145z" />
<glyph unicode="&#xe905;" glyph-name="play" horiz-adv-x="819" d="M570.289 534.646l-259.938-149.662c-2.909-3.449-7.234-5.625-12.066-5.625-8.701 0-15.754 7.053-15.754 15.754 0 2.022 0.381 3.956 1.075 5.732l-0.037 299.216c-0.657 1.669-1.038 3.603-1.038 5.625 0 8.701 7.053 15.754 15.754 15.754 4.833 0 9.157-2.176 12.047-5.602l259.958-149.685c6.016-2.805 10.11-8.801 10.11-15.754s-4.094-12.949-10.003-15.709zM819.2 550.4c0-226.216-183.384-409.6-409.6-409.6s-409.6 183.384-409.6 409.6c0 226.216 183.384 409.6 409.6 409.6s409.6-183.384 409.6-409.6zM756.185 550.4c0 191.413-155.171 346.585-346.585 346.585s-346.585-155.171-346.585-346.585c0-191.413 155.171-346.585 346.585-346.585s346.585 155.171 346.585 346.585z" />
<glyph unicode="&#xe906;" glyph-name="location" horiz-adv-x="668" d="M333.958 862.529c103.751 0 188.108-83.856 188.108-187.678 0-103.769-84.357-188.054-188.108-188.054-103.733 0-187.732 84.267-187.732 188.054 0 103.822 83.981 187.66 187.732 187.66v0.018zM333.958 959.982c-182.186 0-330.664-147.978-330.664-330.414 0-181.989 309.338-678.987 309.338-678.987 11.88-19.412 31.238-19.412 43.171 0 0.018 0.018 308.73 496.515 308.73 678.987 0 182.436-147.87 330.396-330.593 330.396v0.018z" />
<glyph unicode="&#xe907;" d="M0 960h1024v-1024h-1024z" />
<glyph unicode="&#xe908;" d="M640.51 428.010h-91.385v-334.942h-138.709v334.942h-65.683v117.903h65.683v76.29c0 54.26 25.702 139.933 139.933 139.933l102.4-0.408v-114.231h-74.25c-12.239 0-29.374-6.12-29.374-32.229v-69.355h103.624l-12.239-117.495z" />
<glyph unicode="&#xe909;" d="M0 960h1024v-1024h-1024z" />
<glyph unicode="&#xe90a;" d="M722.275 754.794h-420.55c-53.126 0-96.52-43.393-96.52-96.52v-420.55c0-53.126 43.393-96.52 96.52-96.52h420.55c53.126 0 96.52 43.393 96.52 96.52v420.55c0 53.532-43.393 96.52-96.52 96.52zM656.982 683.824v0h77.053c7.3 0 13.383-6.083 13.383-13.383v-77.459c0-7.3-6.083-13.383-13.383-13.383l-77.053-0.406c-7.3 0-13.383 6.083-13.383 13.383l-0.406 77.459c0 7.3 5.678 13.383 13.383 13.383zM417.711 500.518v0c2.028 3.65 4.055 6.894 6.489 10.139 19.466 27.171 51.504 45.015 87.598 45.015s68.131-17.844 87.598-45.015c2.433-3.244 4.461-6.894 6.489-10.139 8.922-15.411 13.789-33.66 13.789-52.721 0-59.615-48.665-107.875-107.875-107.875-59.615 0-107.875 48.26-107.875 107.875 0 19.061 5.272 37.31 13.789 52.721zM758.774 259.625v0c0-32.444-26.36-58.804-58.804-58.804h-376.345c-32.444 0-58.804 26.36-58.804 58.804v251.032h91.653c-2.433-5.678-4.461-11.355-6.083-17.438-4.055-14.6-6.489-30.010-6.489-45.827 0-92.464 75.431-167.895 167.49-167.895 92.464 0 167.895 75.431 167.895 167.895 0 15.816-2.433 31.227-6.489 45.827-1.622 5.678-3.65 11.761-6.083 17.438h91.653v-251.032z" />
<glyph unicode="&#xe90b;" d="M0 960h1024v-1024h-1024z" />
<glyph unicode="&#xe90c;" d="M825.702 592.254c-21.943-9.752-45.511-16.254-70.298-19.098 25.194 15.035 44.698 39.010 54.044 67.86-23.568-14.222-49.981-24.381-77.613-29.663-22.349 23.975-54.044 38.603-89.397 38.603-67.86 0-122.311-54.857-122.311-122.311 0-9.752 1.219-19.098 3.251-28.038-101.587 5.283-192.203 54.044-252.343 128-10.565-17.879-16.66-39.010-16.66-61.765 0-42.667 21.537-80.051 54.451-101.994-19.911 0.813-39.010 6.095-55.263 15.441 0-0.406 0-1.219 0-1.625 0-59.327 42.26-108.902 98.337-119.873-10.159-2.844-21.13-4.47-32.102-4.47-7.721 0-15.441 0.813-23.162 2.032 15.441-48.762 60.952-84.114 114.59-84.927-41.854-32.914-94.679-52.419-151.975-52.419-9.752 0-19.505 0.406-29.257 1.625 54.044-34.54 118.654-54.857 187.733-54.857 225.117 0 348.648 186.514 348.648 348.648 0 5.283 0 10.565-0.406 15.848 23.975 17.067 44.698 39.010 60.952 63.39z" />
<glyph unicode="&#xe90d;" d="M0 960h1024v-1024h-1024z" />
<glyph unicode="&#xe90e;" d="M491.439 224.267h40.309c0 0 12.215 1.221 18.322 8.143 5.7 6.107 5.7 17.508 5.7 17.508s-0.814 53.745 24.429 61.888c24.837 7.736 56.188-52.116 89.982-75.324 25.244-17.508 44.787-13.436 44.787-13.436l89.982 1.221c0 0 46.823 2.85 24.837 39.901-1.629 2.85-13.029 27.28-66.774 77.36-56.188 52.116-48.859 43.973 19.136 134.362 41.123 54.966 57.816 88.76 52.523 103.011-4.886 13.843-35.423 10.179-35.423 10.179l-100.975-0.814c0 0-7.329 1.221-13.029-2.443-5.293-3.257-8.957-10.993-8.957-10.993s-15.879-42.751-37.458-78.988c-45.194-76.546-63.109-80.617-70.438-75.731-17.101 10.993-13.029 44.38-13.029 67.995 0 74.103 11.4 105.047-21.986 113.19-10.993 2.85-19.136 4.479-47.23 4.886-36.237 0.407-66.774 0-83.874-8.55-11.4-5.7-20.358-18.322-15.065-18.729 6.515-0.814 21.986-4.072 29.722-15.065 10.179-14.25 10.179-45.602 10.179-45.602s6.107-87.132-13.843-98.125c-13.436-7.329-32.165 7.736-72.474 77.36-20.358 35.423-36.237 74.917-36.237 74.917s-2.85 7.329-8.143 11.4c-6.515 4.886-15.472 6.107-15.472 6.107l-96.089-0.407c0 0-14.25-0.407-19.544-6.515-4.886-5.7-0.407-17.101-0.407-17.101s75.324-175.892 160.42-264.652c78.174-81.431 166.934-76.138 166.934-76.138z" />
</font></defs></svg>